…
    `summarise()` has grouped output by 'Station.MAC'. You can override using the
    `.groups` argument.

``` r
clustered_data
```

    # A tibble: 12,081 × 5
    # Groups:   Station.MAC [12,081]
       Station.MAC       Probed.ESSIDs first_appearance    last_appearance     Power
       <chr>             <chr>         <dttm>              <dttm>              <dbl>
     1 5C:3A:45:9E:1A:7B "C322U21 056… 2023-07-28 09:13:03 2023-07-28 11:51:54   -39
     2 96:35:2D:3D:85:E6 "IT2 Wireles… 2023-07-28 09:13:03 2023-07-28 09:13:03   -65
     3 C0:E4:34:D8:E7:E5 "C322U13 396… 2023-07-28 09:13:03 2023-07-28 11:53:16   -61
     4 CA:66:3B:8F:56:DD "C322U13 396… 2023-07-28 09:13:03 2023-07-28 10:59:44   -33
     5 5E:8E:A6:5E:34:81 ""            2023-07-28 09:13:04 2023-07-28 09:13:04   -53
     6 10:51:07:CB:33:E7 ""            2023-07-28 09:13:05 2023-07-28 11:56:06   -43
     7 68:54:5A:40:35:9E "C322U06 517… 2023-07-28 09:13:06 2023-07-28 11:50:50   -31
     8 74:4C:A1:70:CE:F7 ""            2023-07-28 09:13:06 2023-07-28 09:20:01   -71
     9 8A:A3:5A:33:76:57 ""            2023-07-28 09:13:06 2023-07-28 10:20:27   -74
    10 CA:54:C4:8B:B5:3A "GIVC"        2023-07-28 09:13:06 2023-07-28 11:55:04   -65
    # ℹ 12,071 more rows
…
